{
  "mongo":"cslvm31",
  "port":27017,
  "database":"mwong56",
  "collection":"lab4",
  "monitor":"lab4monitor",
  "delay":0,
  "words":"sense.txt",
  "clientLog":"clientlog.txt",
  "serverLog":"serverLog.txt",
  "wordFilter":"wordFilter.txt"
}